<?xml version="1.0" encoding="UTF-8" standalone="no"?>
<svg width="21px" height="20px" viewBox="0 0 21 20" version="1.1" xmlns="http://www.w3.org/2000/svg" xmlns:xlink="http://www.w3.org/1999/xlink">
    <!-- Generator: Sketch 50.2 (55047) - http://www.bohemiancoding.com/sketch -->
    <title>Shape</title>
    <desc>Created with Sketch.</desc>
    <defs></defs>
    <g id="Trips" stroke="none" stroke-width="1" fill="none" fill-rule="evenodd">
        <g id="Trips_home" transform="translate(-226.000000, -24.000000)" fill="#071D38" fill-rule="nonzero">
            <g id="Group" transform="translate(218.000000, 16.000000)">
                <path d="M21.5,16 C24,16 26,18 26,20.5 C26,21.38 25.75,22.21 25.31,22.9 L28.39,26 L27,27.39 L23.88,24.32 C23.19,24.75 22.37,25 21.5,25 C19,25 17,23 17,20.5 C17,18 19,16 21.5,16 Z M21.5,18 C20.1192881,18 19,19.1192881 19,20.5 C19,21.8807119 20.1192881,23 21.5,23 C22.8807119,23 24,21.8807119 24,20.5 C24,19.1192881 22.8807119,18 21.5,18 Z M16,8 C18.209139,8 20,9.790861 20,12 C20,12.91 19.69,13.75 19.18,14.43 C18.32,14.75 17.55,15.26 16.91,15.9 L16,16 C13.790861,16 12,14.209139 12,12 C12,9.790861 13.790861,8 16,8 Z M8,24 L8,22 C8,19.88 11.31,18.14 15.5,18 C15.18,18.78 15,19.62 15,20.5 C15,21.79 15.38,23 16,24 L8,24 Z" id="Shape"></path>
            </g>
        </g>
    </g>
</svg>