<?xml version="1.0" encoding="UTF-8" standalone="no"?>
<svg width="16px" height="16px" viewBox="0 0 16 16" version="1.1" xmlns="http://www.w3.org/2000/svg" xmlns:xlink="http://www.w3.org/1999/xlink">
    <!-- Generator: Sketch 50.2 (55047) - http://www.bohemiancoding.com/sketch -->
    <title>Fill 3</title>
    <desc>Created with Sketch.</desc>
    <defs></defs>
    <g id="Material-Design-Symbols" stroke="none" stroke-width="1" fill="none" fill-rule="evenodd">
        <path d="M8.6096,9.2712 L7.5896,9.2712 L7.5896,10.0216 L9.5096,10.0216 C9.94,10.0216 10.2896,10.3712 10.2896,10.8024 C10.2896,11.2328 9.94,11.5824 9.5096,11.5824 L7.5896,11.5824 L7.5896,12.42 C7.5896,12.8504 7.24,13.2 6.8096,13.2 C6.3784,13.2 6.0296,12.8504 6.0296,12.42 L6.0296,11.5824 L5.14,11.5824 C4.7096,11.5824 4.36,11.2328 4.36,10.8024 C4.36,10.3712 4.7096,10.0216 5.14,10.0216 L6.0296,10.0216 L6.0296,9.2712 L5.14,9.2712 C4.7096,9.2712 4.36,8.9216 4.36,8.4912 C4.36,8.06 4.7096,7.7112 5.14,7.7112 L6.0296,7.7112 L6.0296,3.58 C6.0296,3.1496 6.3784,2.8 6.8096,2.8 L8.6096,2.8 C10.28,2.8 11.64,4.2512 11.64,6.036 C11.64,7.82 10.28,9.2712 8.6096,9.2712 M8,0 C3.5816,0 0,3.5816 0,8 C0,12.4184 3.5816,16 8,16 C12.4184,16 16,12.4184 16,8 C16,3.5816 12.4184,0 8,0 M8.6096,4.35984 L7.5896,4.35984 L7.5896,7.71104 L8.6096,7.71104 C9.42,7.71104 10.08,6.95984 10.08,6.03584 C10.08,5.11104 9.42,4.35984 8.6096,4.35984" id="Fill-3" fill="#C0C0C0"></path>
    </g>
</svg>